{
    "status": "READY",
    "intents": [
        {
            "intentVersion": "1",
            "intentName": "WelcomeIntent"
        }
    ],
    "name": "peakdistrict_demo",
    "locale": "en-US",
    "checksum": "3ac111a3-2cb3-4c91-b0c2-e74c5b74457f", 
    "abortStatement": {
        "messages": [
            {
                "content": "Sorry, I could not understand. Goodbye.",
                "contentType": "PlainText"
            }
        ]
    },
    "version": "$LATEST",
    "lastUpdatedDate": 1526752678.97,
    "createdDate": 1526752623.027,
    "clarificationPrompt": {
        "maxAttempts": 5,
        "messages": [
            {
                "content": "Sorry, can you please repeat that?",
                "contentType": "PlainText"
            }
        ]
    },
    "voiceId": "Joanna",
    "childDirected": false,
    "idleSessionTTLInSeconds": 300
}
